analysis_EP2019_turnout
…
party_names <- read_html("https://www.bundeswahlleiter.de/europawahlen/2019/wahlbewerber.html") %>% 
  html_nodes(".tablesaw") %>% 
  html_table() %>% 
  .[[1]] %>% 
  tbl_df() %>% 
  select(-`Im Wahlverfahren verwendete Zusatzbezeichnung`) %>% 
  mutate(party_snakecase = stri_replace_all_fixed(Parteiname, 
                                                  c("ä", "ö", "ü", "Ä", "Ö", "Ü"), 
                                                  c("a", "o", "u", "A", "O", "U"),
                                                  vectorize_all = FALSE),
         party_snakecase = to_snake_case(party_snakecase))

party_names

## # A tibble: 41 x 3
##    Parteiname                 Kurzbezeichnung  party_snakecase             
##    <chr>                      <chr>            <chr>                       
##  1 Christlich Demokratische ~ CDU              christlich_demokratische_un~
##  2 Sozialdemokratische Parte~ SPD              sozialdemokratische_partei_~
##  3 BÜNDNIS 90/DIE GRÜNEN      GRÜNE            bundnis_90_die_grunen       
##  4 DIE LINKE                  DIE LINKE        die_linke                   
##  5 Alternative für Deutschla~ AfD              alternative_fur_deutschland 
##  6 Christlich-Soziale Union ~ CSU              christlich_soziale_union_in~
##  7 Freie Demokratische Partei FDP              freie_demokratische_partei  
##  8 FREIE WÄHLER               FREIE WÄHLER     freie_wahler                
##  9 Piratenpartei Deutschland  PIRATEN          piratenpartei_deutschland   
## 10 PARTEI MENSCH UMWELT TIER~ Tierschutzpartei partei_mensch_umwelt_tiersc~
## # ... with 31 more rows
…
deu_str_processed14 <- deu_str_data14 %>% 
  select(Land, Kreis, Name, 
         bev_in_1000 = `Bevölkerung.am.31.12.2012...Insgesamt..in.1000.`, 
         bev_ausl = `Bevölkerung.am.31.12.2012...Ausländer..in...`, 
         alter_75plus = `Alter.von.....bis.unter.....Jahren.am.31.12.2012...75.und.mehr....`,
         alter_u18 = `Alter.von.....bis.unter.....Jahren.am.31.12.2012...unter.18....`, 
         #inc_p_ew = `Verfügbares Einkommen der privaten Haushalte 2016 (€ je Einwohner)`,
         edu_absolventen_abi = `Allgemein.bildendes.Schulwesen..Absolventen.Abgänger.nach.dem.Abschluss.2012...mit.allgemeiner.Hochschulreife....`,
         sgb2 = `Empfänger.innen..von.Leistungen.nach.SGB.II.am.30.09.2013....insgesamt..je.1000.Einwohner.`,
         alo_quote = `Arbeitslosenquote.Ende.Dezember.2013...insgesamt`) %>% 
  clean_names()
deu_str_data14

## # A tibble: 401 x 43
##    Land  Kreis Name  Gemeinden.am.31~ Fläche.am.31.12~ Bevölkerung.am.~
##    <fct> <int> <fct>            <int>            <dbl>            <dbl>
##  1 Schl~  1001 Flen~                1             56.7             90  
##  2 Schl~  1002 Kiel~                1            119.             244. 
##  3 Schl~  1003 Lübe~                1            214.             212. 
##  4 Schl~  1004 Neum~                1             71.6             76.7
##  5 Schl~  1051 Dith~              116           1428.             134. 
##  6 Schl~  1053 Herz~              132           1263              188  
##  7 Schl~  1054 Nord~              133           2083.             164. 
##  8 Schl~  1055 Osth~               36           1393.             204. 
##  9 Schl~  1056 Pinn~               49            664.             306. 
## 10 Schl~  1057 Plön                85           1083.             133. 
## # ... with 391 more rows, and 37 more variables:
## #   Bevölkerung.am.31.12.2012...männlich..in.1000. <dbl>,
## #   Bevölkerung.am.31.12.2012...Ausländer..in... <dbl>,
## #   Bevölkerungsdichte.am.31.12.2012..Einwohner.je.km² <dbl>,
## #   Zu......bzw..Abnahme.....der.Bevölkerung.2012...Geburtensaldo..je.1000.Einwohner. <dbl>,
## #   Zu......bzw..Abnahme.....der.Bevölkerung.2012...Wanderungssaldo..je.1000.Einwohner. <dbl>,
## #   Alter.von.....bis.unter.....Jahren.am.31.12.2012...unter.18.... <dbl>,
## #   Alter.von.....bis.unter.....Jahren.am.31.12.2012...18.25.... <dbl>,
## #   Alter.von.....bis.unter.....Jahren.am.31.12.2012...25.35.... <dbl>,
…
